dataset,flakyTrain,nonFlakyTrain,flakyTest,nonFlakyTest,k,sigma,precision,recall,preparationTime,predictionTime
ninja,72,3700,18,925,3,0.5,1,0.5,-,0.105316324
okhttp,82.66666667,1909.333333,20.66666667,477.3333333,3,0.5,0.944444444,0.25,-,0.064900726
wro4j,-,-,-,-,3,0.5,-,-,-,-
oryx,17.33333333,494.6666667,4.333333333,123.6666667,3,0.5,0.4,0.222222222,-,0.021390535
hadoop,229.6,2300,57.4,575,3,0.5,0.9,0.240592861,-,0.257879939
alluxio-tachyon,12,8688,4,2172,3,0.5,1,1,-,0.141650203
jimfs,12,1421,4,355,3,0.5,1,1,-,0.019353647
togglz,22,772,5.5,193,3,0.5,0,0,-,0.003982011
,,,,,,,0.749206349,0.458973583,,
ninja,72,3700,18,925,3,0.75,1,0.5,-,0.077958442
okhttp,82.66666667,1909.333333,20.66666667,477.3333333,3,0.75,1,0.194444444,-,0.052900772
wro4j,-,-,-,-,3,0.75,-,-,-,-
oryx,26,742,6.5,185.5,3,0.75,0.75,0.333333333,-,0.022764622
hadoop,229.6,2300,57.4,575,3,0.75,0.955555556,0.202359347,-,0.227721469
alluxio-tachyon,12,8688,4,2172,3,0.75,1,1,-,0.103888771
jimfs,12,1421,4,355,3,0.75,1,1,-,0.017788818
togglz,44,1544,11,386,3,0.75,0,0,-,0.008758472
,,,,,,,0.815079365,0.461448161,,
ninja,72,3700,18,925,3,0.95,1,0.5,-,0.089436359
okhttp,82.66666667,1909.333333,20.66666667,477.3333333,3,0.95,1,0.194444444,-,0.044427139
wro4j,-,-,-,-,3,0.95,-,-,-,-
oryx,26,742,6.5,185.5,3,0.95,0.75,0.333333333,-,0.018099953
hadoop,229.6,2300,57.4,575,3,0.95,0.955555556,0.184875983,-,0.194984583
alluxio-tachyon,12,8688,4,2172,3,0.95,1,1,-,0.087832909
jimfs,12,1421,4,355,3,0.95,1,1,-,0.015290463
togglz,44,1544,11,386,3,0.95,0,0,-,0.006694726
,,,,,,,0.815079365,0.458950537,,
